#define region_width 16
#define region_height 16
static unsigned char region_bits[] = {
   0x80, 0x01, 0xc0, 0x03, 0xd8, 0x1b, 0xbc, 0x3d, 0x3c, 0x3c, 0x18, 0x18,
   0x06, 0x60, 0x0f, 0xf0, 0x0f, 0xf0, 0x06, 0x60, 0x18, 0x18, 0x3c, 0x3c,
   0xbc, 0x3d, 0xd8, 0x1b, 0xc0, 0x03, 0x80, 0x01 };
