%!PS-Adobe-2.0 EPSF-2.0
%%Creator: OKS Library, <Igor.Soloviev@cern.ch>, CERN EP/ATD
%%Title: unknown
%%BoundingBox: 20 260 574 830
%%Pages: 1
%%DocumentFonts: Helvetica-Narrow
%%EndComments

% set image font
/Helvetica-Narrow findfont
8.15 scalefont
setfont

% draw outline rectangle
gsave
0.96 0.96 0.96 setrgbcolor
 20.00 260.06 555.00 569.94 rectfill
grestore

gsave
0.68 setlinewidth
0.00 0.00 0.00 setrgbcolor
 166.73 590.20 moveto 162.66 584.09 lineto stroke
 166.73 590.20 moveto 170.81 584.09 lineto stroke
 162.66 584.09 moveto 166.73 577.97 lineto stroke
 170.81 584.09 moveto 166.73 577.97 lineto stroke
 166.73 577.97 moveto 166.73 577.29 lineto stroke
 166.73 577.29 moveto 114.42 577.29 lineto stroke
 114.42 577.29 moveto 114.42 616.70 lineto stroke
 114.42 616.70 moveto 159.94 616.70 lineto stroke
 259.80 631.64 moveto 447.97 631.64 lineto stroke
 447.97 631.64 moveto 447.97 652.70 lineto stroke
 217.00 691.42 moveto 212.93 685.31 lineto stroke
 217.00 691.42 moveto 221.08 685.31 lineto stroke
 212.93 685.31 moveto 217.00 679.19 lineto stroke
 221.08 685.31 moveto 217.00 679.19 lineto stroke
 217.00 679.19 moveto 217.00 662.89 lineto stroke
 185.07 553.52 moveto 179.64 564.39 lineto stroke
 185.07 553.52 moveto 190.51 564.39 lineto stroke
 179.64 564.39 moveto 190.51 564.39 lineto stroke
 185.07 564.39 moveto 185.07 567.78 lineto stroke
 185.07 567.78 moveto 185.07 567.78 lineto stroke
 185.07 567.78 moveto 185.07 590.20 lineto stroke
 236.02 590.20 moveto 231.95 584.09 lineto stroke
 236.02 590.20 moveto 240.10 584.09 lineto stroke
 231.95 584.09 moveto 236.02 577.97 lineto stroke
 240.10 584.09 moveto 236.02 577.97 lineto stroke
 236.02 577.97 moveto 236.02 553.52 lineto stroke
 485.33 652.70 moveto 485.33 618.05 lineto stroke
 284.25 541.97 moveto 458.84 541.97 lineto stroke
 284.25 505.29 moveto 387.51 505.29 lineto stroke
 284.25 475.40 moveto 375.28 475.40 lineto stroke
 375.28 475.40 moveto 375.28 426.49 lineto stroke
 121.22 364.67 moveto 121.22 349.05 lineto stroke
 162.66 433.28 moveto 62.80 433.28 lineto stroke
 62.80 433.28 moveto 62.80 412.90 lineto stroke
 217.68 383.01 moveto 217.68 336.82 lineto stroke
 217.68 336.82 moveto 303.95 336.82 lineto stroke
 303.95 336.82 moveto 303.95 313.04 lineto stroke
 227.87 383.01 moveto 227.87 357.20 lineto stroke
 227.87 357.20 moveto 334.52 357.20 lineto stroke
 334.52 357.20 moveto 334.52 313.04 lineto stroke
 147.03 313.04 moveto 141.60 302.17 lineto stroke
 147.03 313.04 moveto 152.47 302.17 lineto stroke
 141.60 302.17 moveto 152.47 302.17 lineto stroke
 147.03 302.17 moveto 147.03 296.06 lineto stroke
 147.03 296.06 moveto 206.13 296.06 lineto stroke
 206.13 296.06 moveto 206.13 287.91 lineto stroke
 162.66 541.29 moveto 53.29 541.29 lineto stroke
 53.29 541.29 moveto 53.29 518.87 lineto stroke
 147.03 313.04 moveto 141.60 302.17 lineto stroke
 147.03 313.04 moveto 152.47 302.17 lineto stroke
 141.60 302.17 moveto 152.47 302.17 lineto stroke
 147.03 302.17 moveto 147.03 296.06 lineto stroke
 147.03 296.06 moveto 77.74 296.06 lineto stroke
 77.74 296.06 moveto 77.74 285.87 lineto stroke
 147.03 313.04 moveto 141.60 302.17 lineto stroke
 147.03 313.04 moveto 152.47 302.17 lineto stroke
 141.60 302.17 moveto 152.47 302.17 lineto stroke
 147.03 302.17 moveto 147.03 285.87 lineto stroke
 255.04 698.89 moveto 312.78 698.89 lineto stroke
 255.04 732.18 moveto 312.78 732.18 lineto stroke
grestore
gsave
1.36 setlinewidth
0.00 0.00 0.00 setrgbcolor
 163.34 552.84 moveto 283.57 552.84 lineto stroke
 283.57 552.84 moveto 283.57 383.69 lineto stroke
 163.34 552.84 moveto 163.34 383.69 lineto stroke
 163.34 383.69 moveto 283.57 383.69 lineto stroke
 163.34 537.22 moveto 283.57 537.22 lineto stroke
 163.34 387.77 moveto 283.57 387.77 lineto stroke
 158.58 738.97 moveto 254.36 738.97 lineto stroke
 254.36 738.97 moveto 254.36 692.10 lineto stroke
 158.58 738.97 moveto 158.58 692.10 lineto stroke
 158.58 692.10 moveto 254.36 692.10 lineto stroke
 158.58 723.35 moveto 254.36 723.35 lineto stroke
 158.58 708.40 moveto 254.36 708.40 lineto stroke
 313.46 779.05 moveto 409.93 779.05 lineto stroke
 409.93 779.05 moveto 409.93 719.95 lineto stroke
 313.46 779.05 moveto 313.46 719.95 lineto stroke
 313.46 719.95 moveto 409.93 719.95 lineto stroke
 313.46 763.43 moveto 409.93 763.43 lineto stroke
 313.46 724.03 moveto 409.93 724.03 lineto stroke
 136.84 285.19 moveto 177.60 285.19 lineto stroke
 177.60 285.19 moveto 177.60 262.77 lineto stroke
 136.84 285.19 moveto 136.84 262.77 lineto stroke
 136.84 262.77 moveto 177.60 262.77 lineto stroke
 136.84 269.57 moveto 177.60 269.57 lineto stroke
 136.84 266.85 moveto 177.60 266.85 lineto stroke
 313.46 708.40 moveto 409.93 708.40 lineto stroke
 409.93 708.40 moveto 409.93 649.30 lineto stroke
 313.46 708.40 moveto 313.46 649.30 lineto stroke
 313.46 649.30 moveto 409.93 649.30 lineto stroke
 313.46 692.78 moveto 409.93 692.78 lineto stroke
 313.46 653.38 moveto 409.93 653.38 lineto stroke
 67.55 285.19 moveto 126.65 285.19 lineto stroke
 126.65 285.19 moveto 126.65 262.77 lineto stroke
 67.55 285.19 moveto 67.55 262.77 lineto stroke
 67.55 262.77 moveto 126.65 262.77 lineto stroke
 67.55 269.57 moveto 126.65 269.57 lineto stroke
 67.55 266.85 moveto 126.65 266.85 lineto stroke
 116.46 348.37 moveto 175.56 348.37 lineto stroke
 175.56 348.37 moveto 175.56 313.72 lineto stroke
 116.46 348.37 moveto 116.46 313.72 lineto stroke
 116.46 313.72 moveto 175.56 313.72 lineto stroke
 116.46 332.74 moveto 175.56 332.74 lineto stroke
 116.46 317.80 moveto 175.56 317.80 lineto stroke
 39.02 518.19 moveto 98.12 518.19 lineto stroke
 98.12 518.19 moveto 98.12 459.09 lineto stroke
 39.02 518.19 moveto 39.02 459.09 lineto stroke
 39.02 459.09 moveto 98.12 459.09 lineto stroke
 39.02 502.57 moveto 98.12 502.57 lineto stroke
 39.02 499.85 moveto 98.12 499.85 lineto stroke
 177.60 795.35 moveto 227.19 795.35 lineto stroke
 227.19 795.35 moveto 227.19 760.71 lineto stroke
 177.60 795.35 moveto 177.60 760.71 lineto stroke
 177.60 760.71 moveto 227.19 760.71 lineto stroke
 177.60 779.73 moveto 227.19 779.73 lineto stroke
 177.60 777.01 moveto 227.19 777.01 lineto stroke
 194.58 287.23 moveto 241.46 287.23 lineto stroke
 241.46 287.23 moveto 241.46 264.81 lineto stroke
 194.58 287.23 moveto 194.58 264.81 lineto stroke
 194.58 264.81 moveto 241.46 264.81 lineto stroke
 194.58 271.60 moveto 241.46 271.60 lineto stroke
 194.58 268.89 moveto 241.46 268.89 lineto stroke
 286.29 312.36 moveto 346.07 312.36 lineto stroke
 346.07 312.36 moveto 346.07 265.49 lineto stroke
 286.29 312.36 moveto 286.29 265.49 lineto stroke
 286.29 265.49 moveto 346.07 265.49 lineto stroke
 286.29 296.74 moveto 346.07 296.74 lineto stroke
 286.29 269.57 moveto 346.07 269.57 lineto stroke
 26.11 412.22 moveto 149.75 412.22 lineto stroke
 149.75 412.22 moveto 149.75 365.35 lineto stroke
 26.11 412.22 moveto 26.11 365.35 lineto stroke
 26.11 365.35 moveto 149.75 365.35 lineto stroke
 26.11 396.60 moveto 149.75 396.60 lineto stroke
 26.11 369.42 moveto 149.75 369.42 lineto stroke
 352.18 425.81 moveto 445.25 425.81 lineto stroke
 445.25 425.81 moveto 445.25 378.94 lineto stroke
 352.18 425.81 moveto 352.18 378.94 lineto stroke
 352.18 378.94 moveto 445.25 378.94 lineto stroke
 352.18 410.18 moveto 445.25 410.18 lineto stroke
 352.18 383.01 moveto 445.25 383.01 lineto stroke
 426.91 822.53 moveto 561.41 822.53 lineto stroke
 561.41 822.53 moveto 561.41 653.38 lineto stroke
 426.91 822.53 moveto 426.91 653.38 lineto stroke
 426.91 653.38 moveto 561.41 653.38 lineto stroke
 426.91 806.90 moveto 561.41 806.90 lineto stroke
 426.91 657.45 moveto 561.41 657.45 lineto stroke
 388.19 512.08 moveto 532.88 512.08 lineto stroke
 532.88 512.08 moveto 532.88 440.75 lineto stroke
 388.19 512.08 moveto 388.19 440.75 lineto stroke
 388.19 440.75 moveto 532.88 440.75 lineto stroke
 388.19 496.46 moveto 532.88 496.46 lineto stroke
 388.19 444.83 moveto 532.88 444.83 lineto stroke
 459.52 617.37 moveto 531.52 617.37 lineto stroke
 531.52 617.37 moveto 531.52 521.59 lineto stroke
 459.52 617.37 moveto 459.52 521.59 lineto stroke
 459.52 521.59 moveto 531.52 521.59 lineto stroke
 459.52 601.75 moveto 531.52 601.75 lineto stroke
 459.52 525.67 moveto 531.52 525.67 lineto stroke
 160.62 662.21 moveto 259.12 662.21 lineto stroke
 259.12 662.21 moveto 259.12 590.88 lineto stroke
 160.62 662.21 moveto 160.62 590.88 lineto stroke
 160.62 590.88 moveto 259.12 590.88 lineto stroke
 160.62 646.59 moveto 259.12 646.59 lineto stroke
 160.62 643.87 moveto 259.12 643.87 lineto stroke
grestore
 119.18 567.78 moveto (DQRegions) show
 142.28 607.18 moveto (0..N) show
 341.32 636.40 moveto (Layout) show
 451.36 643.19 moveto (0..1) show
 219.72 675.12 moveto (DQRegions) show
 199.34 667.64 moveto (0..N) show
 238.74 569.82 moveto (DQParameters) show
 218.36 558.27 moveto (0..N) show
 488.05 633.00 moveto (DefaultChildrenShape) show
 469.03 622.81 moveto (0..1) show
 359.66 546.73 moveto (Shape) show
 442.53 532.46 moveto (0..1) show
 318.90 510.04 moveto (Algorithm) show
 371.21 495.78 moveto (1..1) show
 291.73 480.15 moveto (AlgorithmParameters) show
 357.62 431.24 moveto (0..N) show
 123.94 354.48 moveto (Conditions) show
 103.56 353.80 moveto (0..N) show
 92.01 423.77 moveto (References) show
 45.13 417.66 moveto (0..N) show
 233.30 341.57 moveto (RedThresholds) show
 286.29 317.80 moveto (0..N) show
 249.61 361.95 moveto (GreenThresholds) show
 316.86 317.80 moveto (0..N) show
 67.55 531.78 moveto (AssociatedResources) show
 35.62 523.63 moveto (0..N) show
 263.19 703.65 moveto (DQOutputs) show
 295.12 689.38 moveto (1..N) show
 266.59 736.93 moveto (DQInputs) show
 295.12 722.67 moveto (1..N) show
 198.66 541.97 moveto (DQParameter) show
 166.05 527.03 moveto (InputDataSource: list of string) show
 166.05 514.80 moveto (InputDataType: enum = 'Plain') show
 166.05 502.57 moveto (Description: string) show
 166.05 490.34 moveto (Weight: float = '1') show
 166.05 478.12 moveto (Action: string) show
 166.05 465.89 moveto (DrawOption: string) show
 166.05 453.66 moveto (LogX: bool = '0') show
 166.05 441.43 moveto (LogY: bool = '0') show
 166.05 429.20 moveto (LogZ: bool = '0') show
 166.05 416.98 moveto (DisableChildren: bool = 'true') show
 166.05 404.75 moveto (Troubleshooting: string) show
 166.05 392.52 moveto (RaiseAlarm: bool = 'false') show
 189.15 728.10 moveto (DQAgent) show
 161.30 713.16 moveto (ShiftLevel: bool = 'true') show
 161.30 697.53 moveto (get_algorithms_libraries) show
 346.75 768.18 moveto (DQInput) show
 316.18 753.24 moveto (Name: string) show
 316.18 741.01 moveto (Library: string) show
 316.18 728.78 moveto (Parameters: list of string) show
 140.92 274.32 moveto (RunType) show
 343.35 697.53 moveto (DQOutput) show
 316.18 682.59 moveto (Name: string) show
 316.18 670.36 moveto (Library: string) show
 316.18 658.13 moveto (Parameters: list of string) show
 71.63 274.32 moveto (DetectorMask) show
 128.69 337.50 moveto (Condition) show
 119.18 322.55 moveto (Source: string) show
 47.85 507.33 moveto (Component) show
 41.74 488.98 moveto (get_parents) show
 41.74 476.76 moveto (disabled) show
 41.74 464.53 moveto (why_disabled) show
 181.68 784.49 moveto (Application) show
 180.32 766.14 moveto (get_host) show
 198.66 276.36 moveto (Luminosity) show
 291.73 301.49 moveto (DQThreshold) show
 289.01 286.55 moveto (Name: string) show
 289.01 274.32 moveto (Value: double) show
 62.80 401.35 moveto (DQReference) show
 28.83 386.41 moveto (Reference: string = 'null') show
 28.83 374.18 moveto (ReferenceScaling: bool = 'true') show
 356.26 414.94 moveto (DQAlgorithmParameter) show
 354.90 399.99 moveto (Name: string) show
 354.90 387.77 moveto (Value: list of double) show
 475.14 811.66 moveto (DQLayout) show
 429.63 796.71 moveto (Type: enum = 'Grid') show
 429.63 784.49 moveto (Rows: u32 = '1') show
 429.63 772.26 moveto (Columns: u32 = '1') show
 429.63 760.03 moveto (Orientation: enum = 'Horizontal') show
 429.63 747.80 moveto (VGaps: list of float) show
 429.63 735.58 moveto (HGaps: list of float) show
 429.63 723.35 moveto (OddRowsOffset: list of float) show
 429.63 711.12 moveto (OddColumnsOffset: list of float) show
 429.63 698.89 moveto (EmptyCells: list of u16) show
 429.63 686.66 moveto (Tilt: float = '0') show
 429.63 674.44 moveto (Transparency: bool = 'false') show
 429.63 662.21 moveto (ShowChildrenName: bool = 'false') show
 437.10 501.21 moveto (DQAlgorithm) show
 390.91 486.27 moveto (LibraryName: string) show
 390.91 474.04 moveto (ParametersNames: list of string) show
 390.91 461.81 moveto (RedThresholdsNames: list of string) show
 390.91 449.58 moveto (GreenThresholdsNames: list of string) show
 477.18 606.51 moveto (DQShape) show
 462.23 591.56 moveto (Type: enum) show
 462.23 579.33 moveto (Width: float) show
 462.23 567.11 moveto (Length: float) show
 462.23 554.88 moveto (InnerAngle: float) show
 462.23 542.65 moveto (Tilt: float = '0') show
 462.23 530.42 moveto (LengthRatio: float) show
 190.51 651.34 moveto (DQRegion) show
 163.34 633.00 moveto (visit_all_regions) show
 163.34 620.77 moveto (get_root_regions) show
 163.34 608.54 moveto (get_algorithms_libraries) show
 163.34 596.32 moveto (is_referenced_by_agent) show
showpage
